{
	"info": {
		"_postman_id": "23903acf-707e-4f76-a747-38597523da92",
		"name": "Many To Many",
		"schema": "https://schema.getpostman.com/json/collection/v2.1.0/collection.json"
	},
	"item": [
		{
			"name": "Many2Many - odczyt companies",
			"request": {
				"method": "GET",
				"header": [],
				"url": {
					"raw": "http://localhost:8080/many2many/companies/1",
					"protocol": "http",
					"host": [
						"localhost"
					],
					"port": "8080",
					"path": [
						"many2many",
						"companies",
						"1"
					]
				}
			},
			"response": []
		},
		{
			"name": "Many2Many - odczyt employee",
			"request": {
				"method": "GET",
				"header": [],
				"url": {
					"raw": "http://localhost:8080/many2many/employees/1",
					"protocol": "http",
					"host": [
						"localhost"
					],
					"port": "8080",
					"path": [
						"many2many",
						"employees",
						"1"
					]
				}
			},
			"response": []
		},
		{
			"name": "Many2Many - odczyt bez N+1",
			"request": {
				"method": "GET",
				"header": [],
				"url": {
					"raw": "http://localhost:8080/many2many/companies/noNPlus1",
					"protocol": "http",
					"host": [
						"localhost"
					],
					"port": "8080",
					"path": [
						"many2many",
						"companies",
						"noNPlus1"
					]
				}
			},
			"response": []
		},
		{
			"name": "Many2Many - odczyt N+1",
			"request": {
				"method": "GET",
				"header": [],
				"url": {
					"raw": "http://localhost:8080/many2many/companies/nPlus1",
					"protocol": "http",
					"host": [
						"localhost"
					],
					"port": "8080",
					"path": [
						"many2many",
						"companies",
						"nPlus1"
					]
				}
			},
			"response": []
		}
	]
}